{
    "page": 2,
    "per_page": 6,
    "total": 12,
    "total_pages": 2,
    "data": [
        {
            "nom": "blabla",
            "paruption": "29  lorem  2000",
            "description": "Lorem ipsum dolor, sit amet consectetur adipisicing elit. Recusandae consequatur deleniti exercitationem error ad libero porro quaerat quidem harum officiis.",
            "img": "https://picsum.photos/200"
        },
        {
            "nom": "blibli",
            "paruption": "31  lorem  2012",
            "description": "Voluptates exercitationem quam suscipit quidem numquam ad fugiat! Consequuntur, facilis. Optio quo nam praesentium accusamus cum saepe unde, molestiae at.",
            "img": "https://picsum.photos/201"
        },
        {
            "nom": "bloublou",
            "paruption": "12  lorem  91",
            "description": "Possimus a atque, similique doloribus minima cumque saepe et eaque maiores nesciunt neque iure veniam quae! A, facere obcaecati. Optio?",
            "img": "https://picsum.photos/202"
        }
    ],
    "support": {
        "url": "https://reqres.in/#support-heading",
        "text": "To keep ReqRes free, contributions towards server costs are appreciated!"
    }
}